…
```

load the example data

```jldoctest high_level; output = false
data = example_data("political_democracy")

# output

75×11 DataFrame
 Row │ x1       x2       x3       y1       y2        y3        y4        y5    ⋯
     │ Float64  Float64  Float64  Float64  Float64   Float64   Float64   Float ⋯
─────┼──────────────────────────────────────────────────────────────────────────
   1 │ 4.44265  3.63759  2.55762     2.5    0.0       3.33333   0.0       1.25 ⋯
   2 │ 5.3845   5.06259  3.56808     1.25   0.0       3.33333   0.0       6.25
   3 │ 5.96101  6.25575  5.22443     7.5    8.8      10.0       9.19999   8.75
   4 │ 6.286    7.56786  6.2675      8.9    8.8      10.0       9.19999   8.90
   5 │ 5.86363  6.81892  4.57368    10.0    3.33333  10.0       6.66667   7.5  ⋯
   6 │ 5.53339  5.1358   3.89227     7.5    3.33333   6.66667   6.66667   6.25
   7 │ 5.30827  5.07517  3.31621     7.5    3.33333   6.66667   6.66667   5.0
   8 │ 5.34711  4.85203  4.26318     7.5    2.23333  10.0       1.49633   6.25
  ⋮  │    ⋮        ⋮        ⋮        ⋮        ⋮         ⋮         ⋮         ⋮  ⋱
  69 │ 4.52179  4.12713  2.11331     5.0    0.0       8.2       0.0       5.0  ⋯
  70 │ 4.65396  3.55535  1.88192     2.9    3.33333   6.66667   3.33333   2.5
  71 │ 4.47734  3.09104  1.98791     5.4   10.0       6.66667   3.33333   3.75
  72 │ 5.33754  5.63121  3.491       7.5    8.8      10.0       6.06667   7.5
  73 │ 6.12905  6.40357  5.0018      7.5    7.0      10.0       6.853     7.5  ⋯
  74 │ 5.00395  4.96284  3.97699    10.0    6.66667  10.0      10.0      10.0
  75 │ 4.48864  4.89784  2.86757     3.75   3.33333   0.0       0.0       1.25
                                                   4 columns and 60 rows omitted
```
…
